{
  "classname": null,
  "name": null,
  "animation": {
    "classname": null,
    "name": "AnimationManager",
    "actionlist": []
  },
  "dataScale": 1,
  "designHeight": 720,
  "designWidth": 1280,
  "textures": [],
  "texturesPng": [
    "BackLayer/back_bg.png",
    "BackLayer/back_region1.png",
    "BackLayer/back_region2.png",
    "BackLayer/back_sound1.png",
    "BackLayer/back_music2.png",
    "BackLayer/back_sound2.png",
    "BackLayer/back_music1.png",
    "public/baoxiangBg0.png",
    "gameStore/lejuanBg.png",
    "public/huodeLeJuan.png",
    "gameStore/coinBg1.png",
    "public/huodeJinBi.png",
    "public/closeBXBtn.png",
    "public/kaiqiBtn.png",
    "public/baoxiangyige.png",
    "benefits/benefitsbg.png",
    "benefits/sureBtn1.png",
    "benefits/sureBtn2.png",
    "benefits/exitBtn.png",
    "public/bg.png",
    "public/cancel1.png",
    "public/cancel2.png",
    "public/confirm1.png",
    "public/confirm2.png",
    "gameLayer/touxiangBg.png",
    "Ranking/jiangbei1.png",
    "gameLayer/s_head.png",
    "firstRecUi/bg.png",
    "firstRecUi/recBtn1.png",
    "firstRecUi/recBtn2.png",
    "firstRecUi/exitBtn1.png",
    "firstRecUi/exitBtn2.png",
    "gameChoice/bg2.png",
    "gameLayer/bottom-.png",
    "gameLayer/s_head.png",
    "gameLayer/xutou1.png",
    "gameLayer/xutou2.png",
    "gameLayer/xutou3.png",
    "gameLayer/guizeBtn2.png",
    "gameLayer/guizeBtn1.png",
    "gameLayer/guizeBtn3.png",
    "gameLayer/baoXiang.png",
    "gameLayer/desk.png",
    "gameLayer/img_light1.png",
    "gameLayer/img_light2.png",
    "gameLayer/img_light3.png",
    "gameLayer/img_light4.png",
    "gameLayer/icon_new.png",
    "gameLayer/anniu1.png",
    "gameLayer/anniu2.png",
    "gameLayer/anniu3.png",
    "gameLayer/anniu4.png",
    "gameLayer/cm_1_1.png",
    "gameLayer/cm_1_1_2.png",
    "gameLayer/cm_1_1_4.png",
    "gameLayer/cm_1_2_2.png",
    "gameLayer/cm_1_2.png",
    "gameLayer/cm_1_2_4.png",
    "gameLayer/cm_1_3_2.png",
    "gameLayer/cm_1_3.png",
    "gameLayer/cm_1_3_4.png",
    "gameLayer/cm_1_4_2.png",
    "gameLayer/cm_1_4.png",
    "gameLayer/cm_1_4_4.png",
    "gameLayer/cm_1_5_2.png",
    "gameLayer/cm_1_5.png",
    "gameLayer/cm_1_5_4.png",
    "gameLayer/cm_1_6_2.png",
    "gameLayer/cm_1_6.png",
    "gameLayer/cm_1_6_4.png",
    "gameLayer/returnBtn0.png",
    "gameLayer/returnBtn1.png",
    "gameLayer/haveHeadBg.png",
    "gameLayer/bg.png",
    "gameLayer/timeWait.png",
    "gameLayer/bankerIcon.png",
    "gameLayer/bankerOn1.png",
    "gameLayer/bankerOn2.png",
    "gameLayer/bankerOn3.png",
    "gameLayer/bankerCancel1.png",
    "gameLayer/bankerCancel2.png",
    "gameLayer/bankerDown1.png",
    "gameLayer/bankerDown2.png",
    "gameLayer/bankerDown3.png",
    "gameLayer/bankerMesseg1.png",
    "gameLayer/bankerMesseg2.png",
    "gameLayer/bankerMesseg3.png",
    "gameLayer/bankerMesseg4.png",
    "gameLayer/bg2.png",
    "gameLayer/hcpyPlayerInfo.png",
    "gameLayer/hcpyPlayerInfoX1.png",
    "gameLayer/hcpyPlayerInfoX2.png",
    "gameLayer/hcpyPlayerInfoX3.png",
    "gameLayer/qingdengdai.png",
    "gameLayer/xiandengdai.png",
    "gameLayer/hcpyYinDao.png",
    "gameLayer/closeSound.png",
    "gameLayer/openSound.png",
    "gameLayer/add1.png",
    "gameLayer/add2.png",
    "gameLayer/add3.png",
    "gameLayer/img_8.png",
    "gameLayer/guiZheJieMian.png",
    "gameLayer/benchibaomaGuize.png",
    "Loading/closeBtn.png",
    "gameStore/payRecordBg.png",
    "loginUI/denglukuang.png",
    "loginUI/loginBtn0.png",
    "loginUI/loginBtn1.png",
    "loginUI/textbg.png",
    "loginUI/accountLogin.png",
    "loginUI/zhuceBtn1.png",
    "loginUI/zhuceBtn2.png",
    "public/closeBXBtn.png",
    "PersonalInfo/zhaohuimima.png",
    "gameChoice/bg2.png",
    "loginUI/quickGame1.png",
    "loginUI/quickGame2.png",
    "loginUI/zhangHaoDengLu1.png",
    "loginUI/zhangHaoDengLu2.png",
    "loginUI/quickRegister1.png",
    "loginUI/quickRegister2.png",
    "loginUI/noticeBtn1.png",
    "loginUI/noticeBtn2.png",
    "loginUI/noticeBtn3.png",
    "loginUI/kefuBtn1.png",
    "loginUI/kefuBtn2.png",
    "loginUI/kefuBtn3.png",
    "public/bg.png",
    "public/confirm1.png",
    "public/confirm2.png",
    "public/cancel1.png",
    "public/cancel2.png"
  ],
  "version": "1.6.0.0",
  "widgetTree": {
    "classname": "Panel",
    "name": null,
    "children": [
      {
        "classname": "Panel",
        "name": null,
        "children": [
          {
            "classname": "Button",
            "name": null,
            "children": [],
            "options": {
              "__type": "ButtonSurrogate:#EditorCommon.JsonModel.Component.GUI",
              "classname": "Button",
              "name": "quickBtn",
              "ZOrder": 0,
              "actiontag": 45157297,
              "anchorPointX": 0.5,
              "anchorPointY": 0.5,
              "classType": "CocoStudio.EngineAdapterWrap.CSButton",
              "colorB": 255,
              "colorG": 255,
              "colorR": 255,
              "customProperty": "",
              "flipX": false,
              "flipY": false,
              "height": 90,
              "ignoreSize": true,
              "layoutParameter": null,
              "opacity": 255,
              "positionPercentX": 0.328125,
              "positionPercentY": 0.193055555,
              "positionType": 0,
              "rotation": 0,
              "scaleX": 1,
              "scaleY": 1,
              "sizePercentX": 0.180468753,
              "sizePercentY": 0.125,
              "sizeType": 0,
              "tag": 9,
              "touchAble": true,
              "useMergedTexture": false,
              "visible": true,
              "width": 231,
              "x": 420,
              "y": 139,
              "capInsetsHeight": 1,
              "capInsetsWidth": 1,
              "capInsetsX": 0,
              "capInsetsY": 0,
              "disabled": null,
              "disabledData": {
                "path": "loginUI/quickGame1.png",
                "plistFile": "",
                "resourceType": 0
              },
              "fontName": "微软雅黑",
              "fontSize": 14,
              "fontType": 0,
              "normal": null,
              "normalData": {
                "path": "loginUI/quickGame1.png",
                "plistFile": "",
                "resourceType": 0
              },
              "pressed": null,
              "pressedData": {
                "path": "loginUI/quickGame2.png",
                "plistFile": "",
                "resourceType": 0
              },
              "scale9Enable": false,
              "scale9Height": 90,
              "scale9Width": 231,
              "text": "",
              "textColorB": 255,
              "textColorG": 255,
              "textColorR": 255
            }
          },
          {
            "classname": "Button",
            "name": null,
            "children": [],
            "options": {
              "__type": "ButtonSurrogate:#EditorCommon.JsonModel.Component.GUI",
              "classname": "Button",
              "name": "accountBtn",
              "ZOrder": 0,
              "actiontag": 19760744,
              "anchorPointX": 0.5,
              "anchorPointY": 0.5,
              "classType": "CocoStudio.EngineAdapterWrap.CSButton",
              "colorB": 255,
              "colorG": 255,
              "colorR": 255,
              "customProperty": "",
              "flipX": false,
              "flipY": false,
              "height": 90,
              "ignoreSize": true,
              "layoutParameter": null,
              "opacity": 255,
              "positionPercentX": 0.671875,
              "positionPercentY": 0.193055555,
              "positionType": 0,
              "rotation": 0,
              "scaleX": 1,
              "scaleY": 1,
              "sizePercentX": 0.180468753,
              "sizePercentY": 0.125,
              "sizeType": 0,
              "tag": 22,
              "touchAble": true,
              "useMergedTexture": false,
              "visible": true,
              "width": 231,
              "x": 860,
              "y": 139,
              "capInsetsHeight": 1,
              "capInsetsWidth": 1,
              "capInsetsX": 0,
              "capInsetsY": 0,
              "disabled": null,
              "disabledData": {
                "path": "loginUI/zhangHaoDengLu1.png",
                "plistFile": "",
                "resourceType": 0
              },
              "fontName": "微软雅黑",
              "fontSize": 14,
              "fontType": 0,
              "normal": null,
              "normalData": {
                "path": "loginUI/zhangHaoDengLu1.png",
                "plistFile": "",
                "resourceType": 0
              },
              "pressed": null,
              "pressedData": {
                "path": "loginUI/zhangHaoDengLu2.png",
                "plistFile": "",
                "resourceType": 0
              },
              "scale9Enable": false,
              "scale9Height": 90,
              "scale9Width": 231,
              "text": "",
              "textColorB": 255,
              "textColorG": 255,
              "textColorR": 255
            }
          },
          {
            "classname": "Button",
            "name": null,
            "children": [],
            "options": {
              "__type": "ButtonSurrogate:#EditorCommon.JsonModel.Component.GUI",
              "classname": "Button",
              "name": "registerBtn",
              "ZOrder": 0,
              "actiontag": 48856913,
              "anchorPointX": 0.5,
              "anchorPointY": 0.5,
              "classType": "CocoStudio.EngineAdapterWrap.CSButton",
              "colorB": 255,
              "colorG": 255,
              "colorR": 255,
              "customProperty": "",
              "flipX": false,
              "flipY": false,
              "height": 55,
              "ignoreSize": true,
              "layoutParameter": null,
              "opacity": 255,
              "positionPercentX": 0.8257812,
              "positionPercentY": 0.35,
              "positionType": 0,
              "rotation": 0,
              "scaleX": 1,
              "scaleY": 1,
              "sizePercentX": 0.10625,
              "sizePercentY": 0.07638889,
              "sizeType": 0,
              "tag": 17,
              "touchAble": true,
              "useMergedTexture": false,
              "visible": true,
              "width": 136,
              "x": 1057,
              "y": 252,
              "capInsetsHeight": 1,
              "capInsetsWidth": 1,
              "capInsetsX": 0,
              "capInsetsY": 0,
              "disabled": null,
              "disabledData": {
                "path": "loginUI/quickRegister1.png",
                "plistFile": "",
                "resourceType": 0
              },
              "fontName": "微软雅黑",
              "fontSize": 14,
              "fontType": 0,
              "normal": null,
              "normalData": {
                "path": "loginUI/quickRegister1.png",
                "plistFile": "",
                "resourceType": 0
              },
              "pressed": null,
              "pressedData": {
                "path": "loginUI/quickRegister2.png",
                "plistFile": "",
                "resourceType": 0
              },
              "scale9Enable": false,
              "scale9Height": 55,
              "scale9Width": 136,
              "text": "",
              "textColorB": 255,
              "textColorG": 255,
              "textColorR": 255
            }
          },
          {
            "classname": "Button",
            "name": null,
            "children": [],
            "options": {
              "__type": "ButtonSurrogate:#EditorCommon.JsonModel.Component.GUI",
              "classname": "Button",
              "name": "gonggaoBtn",
              "ZOrder": 0,
              "actiontag": 54183561,
              "anchorPointX": 0.5,
              "anchorPointY": 0.5,
              "classType": "CocoStudio.EngineAdapterWrap.CSButton",
              "colorB": 255,
              "colorG": 255,
              "colorR": 255,
              "customProperty": "",
              "flipX": false,
              "flipY": false,
              "height": 95,
              "ignoreSize": true,
              "layoutParameter": null,
              "opacity": 255,
              "positionPercentX": 0.8078125,
              "positionPercentY": 1.17777777,
              "positionType": 0,
              "rotation": 0,
              "scaleX": 1,
              "scaleY": 1,
              "sizePercentX": 0.0859375,
              "sizePercentY": 0.131944448,
              "sizeType": 0,
              "tag": 12403,
              "touchAble": true,
              "useMergedTexture": false,
              "visible": true,
              "width": 110,
              "x": 1034,
              "y": 848,
              "capInsetsHeight": 1,
              "capInsetsWidth": 1,
              "capInsetsX": 0,
              "capInsetsY": 0,
              "disabled": null,
              "disabledData": {
                "path": "loginUI/noticeBtn3.png",
                "plistFile": "",
                "resourceType": 0
              },
              "fontName": "微软雅黑",
              "fontSize": 14,
              "fontType": 0,
              "normal": null,
              "normalData": {
                "path": "loginUI/noticeBtn1.png",
                "plistFile": "",
                "resourceType": 0
              },
              "pressed": null,
              "pressedData": {
                "path": "loginUI/noticeBtn2.png",
                "plistFile": "",
                "resourceType": 0
              },
              "scale9Enable": false,
              "scale9Height": 95,
              "scale9Width": 110,
              "text": "",
              "textColorB": 255,
              "textColorG": 255,
              "textColorR": 255
            }
          },
          {
            "classname": "Button",
            "name": null,
            "children": [],
            "options": {
              "__type": "ButtonSurrogate:#EditorCommon.JsonModel.Component.GUI",
              "classname": "Button",
              "name": "kefuBtn",
              "ZOrder": 0,
              "actiontag": 17714882,
              "anchorPointX": 0.5,
              "anchorPointY": 0.5,
              "classType": "CocoStudio.EngineAdapterWrap.CSButton",
              "colorB": 255,
              "colorG": 255,
              "colorR": 255,
              "customProperty": "",
              "flipX": false,
              "flipY": false,
              "height": 136,
              "ignoreSize": true,
              "layoutParameter": null,
              "opacity": 255,
              "positionPercentX": 0.94375,
              "positionPercentY": 0.8,
              "positionType": 0,
              "rotation": 0,
              "scaleX": 1,
              "scaleY": 1,
              "sizePercentX": 0.0765625,
              "sizePercentY": 0.188888893,
              "sizeType": 0,
              "tag": 12404,
              "touchAble": true,
              "useMergedTexture": false,
              "visible": true,
              "width": 98,
              "x": 1208,
              "y": 576,
              "capInsetsHeight": 1,
              "capInsetsWidth": 1,
              "capInsetsX": 0,
              "capInsetsY": 0,
              "disabled": null,
              "disabledData": {
                "path": "loginUI/kefuBtn3.png",
                "plistFile": "",
                "resourceType": 0
              },
              "fontName": "微软雅黑",
              "fontSize": 14,
              "fontType": 0,
              "normal": null,
              "normalData": {
                "path": "loginUI/kefuBtn1.png",
                "plistFile": "",
                "resourceType": 0
              },
              "pressed": null,
              "pressedData": {
                "path": "loginUI/kefuBtn2.png",
                "plistFile": "",
                "resourceType": 0
              },
              "scale9Enable": false,
              "scale9Height": 136,
              "scale9Width": 98,
              "text": "",
              "textColorB": 255,
              "textColorG": 255,
              "textColorR": 255
            }
          }
        ],
        "options": {
          "__type": "PanelSurrogate:#EditorCommon.JsonModel.Component.GUI",
          "classname": "Panel",
          "name": "loginBg",
          "ZOrder": 0,
          "actiontag": 34837828,
          "anchorPointX": 0,
          "anchorPointY": 0,
          "classType": "CocoStudio.EngineAdapterWrap.CSPanel",
          "colorB": 255,
          "colorG": 255,
          "colorR": 255,
          "customProperty": "",
          "flipX": false,
          "flipY": false,
          "height": 720,
          "ignoreSize": false,
          "layoutParameter": null,
          "opacity": 255,
          "positionPercentX": 0,
          "positionPercentY": 0,
          "positionType": 0,
          "rotation": 0,
          "scaleX": 1,
          "scaleY": 1,
          "sizePercentX": 1,
          "sizePercentY": 1,
          "sizeType": 0,
          "tag": 9101,
          "touchAble": true,
          "useMergedTexture": false,
          "visible": true,
          "width": 1280,
          "x": 0,
          "y": 0,
          "adaptScreen": false,
          "backGroundImage": null,
          "backGroundImageData": null,
          "backGroundScale9Enable": false,
          "bgColorB": 255,
          "bgColorG": 200,
          "bgColorOpacity": 100,
          "bgColorR": 150,
          "bgEndColorB": 255,
          "bgEndColorG": 200,
          "bgEndColorR": 150,
          "bgStartColorB": 255,
          "bgStartColorG": 255,
          "bgStartColorR": 255,
          "capInsetsHeight": 1,
          "capInsetsWidth": 1,
          "capInsetsX": 0,
          "capInsetsY": 0,
          "clipAble": false,
          "colorType": 0,
          "layoutType": 0,
          "vectorX": 0,
          "vectorY": -0.5
        }
      },
      {
        "classname": "Label",
        "name": null,
        "children": [],
        "options": {
          "__type": "LabelSurrogate:#EditorCommon.JsonModel.Component.GUI",
          "classname": "Label",
          "name": "Label_8",
          "ZOrder": 0,
          "actiontag": 50959748,
          "anchorPointX": 0.5,
          "anchorPointY": 0.5,
          "classType": "CocoStudio.EngineAdapterWrap.CSLabel",
          "colorB": 255,
          "colorG": 255,
          "colorR": 255,
          "customProperty": "",
          "flipX": false,
          "flipY": false,
          "height": 27,
          "ignoreSize": true,
          "layoutParameter": null,
          "opacity": 255,
          "positionPercentX": 0.8460938,
          "positionPercentY": -0.180555552,
          "positionType": 0,
          "rotation": 0,
          "scaleX": 1,
          "scaleY": 1,
          "sizePercentX": 0.15625,
          "sizePercentY": 0.0375,
          "sizeType": 0,
          "tag": 10968,
          "touchAble": false,
          "useMergedTexture": false,
          "visible": true,
          "width": 200,
          "x": 1083,
          "y": -130,
          "areaHeight": 0,
          "areaWidth": 0,
          "fontFile": null,
          "fontName": "微软雅黑",
          "fontSize": 20,
          "hAlignment": 0,
          "text": "客服QQ：800112257",
          "touchScaleEnable": false,
          "vAlignment": 0
        }
      },
      {
        "classname": "Label",
        "name": null,
        "children": [],
        "options": {
          "__type": "LabelSurrogate:#EditorCommon.JsonModel.Component.GUI",
          "classname": "Label",
          "name": "Version",
          "ZOrder": 0,
          "actiontag": 6730079,
          "anchorPointX": 0.5,
          "anchorPointY": 0.5,
          "classType": "CocoStudio.EngineAdapterWrap.CSLabel",
          "colorB": 255,
          "colorG": 255,
          "colorR": 255,
          "customProperty": "",
          "flipX": false,
          "flipY": false,
          "height": 27,
          "ignoreSize": true,
          "layoutParameter": null,
          "opacity": 255,
          "positionPercentX": 0.08125,
          "positionPercentY": 0.06388889,
          "positionType": 0,
          "rotation": 0,
          "scaleX": 1,
          "scaleY": 1,
          "sizePercentX": 0.0375,
          "sizePercentY": 0.0375,
          "sizeType": 0,
          "tag": 12402,
          "touchAble": false,
          "useMergedTexture": false,
          "visible": true,
          "width": 48,
          "x": 104,
          "y": 46,
          "areaHeight": 0,
          "areaWidth": 0,
          "fontFile": null,
          "fontName": "微软雅黑",
          "fontSize": 20,
          "hAlignment": 0,
          "text": "V:1.0",
          "touchScaleEnable": false,
          "vAlignment": 0
        }
      },
      {
        "classname": "Panel",
        "name": null,
        "children": [
          {
            "classname": "Label",
            "name": null,
            "children": [],
            "options": {
              "__type": "LabelSurrogate:#EditorCommon.JsonModel.Component.GUI",
              "classname": "Label",
              "name": "lable",
              "ZOrder": 0,
              "actiontag": 27321733,
              "anchorPointX": 0,
              "anchorPointY": 0.5,
              "classType": "CocoStudio.EngineAdapterWrap.CSLabel",
              "colorB": 255,
              "colorG": 255,
              "colorR": 255,
              "customProperty": "",
              "flipX": false,
              "flipY": false,
              "height": 27,
              "ignoreSize": true,
              "layoutParameter": null,
              "opacity": 255,
              "positionPercentX": 1.04,
              "positionPercentY": 0.5,
              "positionType": 0,
              "rotation": 0,
              "scaleX": 1,
              "scaleY": 1,
              "sizePercentX": 0.11875,
              "sizePercentY": 0.75,
              "sizeType": 0,
              "tag": 12406,
              "touchAble": false,
              "useMergedTexture": false,
              "visible": true,
              "width": 95,
              "x": 832,
              "y": 18,
              "areaHeight": 0,
              "areaWidth": 0,
              "fontFile": null,
              "fontName": "微软雅黑",
              "fontSize": 20,
              "hAlignment": 0,
              "text": "Text Label",
              "touchScaleEnable": false,
              "vAlignment": 0
            }
          }
        ],
        "options": {
          "__type": "PanelSurrogate:#EditorCommon.JsonModel.Component.GUI",
          "classname": "Panel",
          "name": "zoumaPanel",
          "ZOrder": 0,
          "actiontag": 54760110,
          "anchorPointX": 0,
          "anchorPointY": 0,
          "classType": "CocoStudio.EngineAdapterWrap.CSPanel",
          "colorB": 255,
          "colorG": 255,
          "colorR": 255,
          "customProperty": "",
          "flipX": false,
          "flipY": false,
          "height": 36,
          "ignoreSize": false,
          "layoutParameter": null,
          "opacity": 255,
          "positionPercentX": 0.19375,
          "positionPercentY": 0.8486111,
          "positionType": 0,
          "rotation": 0,
          "scaleX": 1,
          "scaleY": 1,
          "sizePercentX": 0.625,
          "sizePercentY": 0.05,
          "sizeType": 0,
          "tag": 12405,
          "touchAble": true,
          "useMergedTexture": false,
          "visible": true,
          "width": 800,
          "x": 248,
          "y": 611,
          "adaptScreen": false,
          "backGroundImage": null,
          "backGroundImageData": null,
          "backGroundScale9Enable": false,
          "bgColorB": 255,
          "bgColorG": 200,
          "bgColorOpacity": 100,
          "bgColorR": 150,
          "bgEndColorB": 255,
          "bgEndColorG": 200,
          "bgEndColorR": 150,
          "bgStartColorB": 255,
          "bgStartColorG": 255,
          "bgStartColorR": 255,
          "capInsetsHeight": 1,
          "capInsetsWidth": 1,
          "capInsetsX": 0,
          "capInsetsY": 0,
          "clipAble": true,
          "colorType": 0,
          "layoutType": 0,
          "vectorX": 0,
          "vectorY": -0.5
        }
      },
      {
        "classname": "Panel",
        "name": null,
        "children": [
          {
            "classname": "ImageView",
            "name": null,
            "children": [
              {
                "classname": "Button",
                "name": null,
                "children": [],
                "options": {
                  "__type": "ButtonSurrogate:#EditorCommon.JsonModel.Component.GUI",
                  "classname": "Button",
                  "name": "OkBtn",
                  "ZOrder": 0,
                  "actiontag": 33405302,
                  "anchorPointX": 0.5,
                  "anchorPointY": 0.5,
                  "classType": "CocoStudio.EngineAdapterWrap.CSButton",
                  "colorB": 255,
                  "colorG": 255,
                  "colorR": 255,
                  "customProperty": "",
                  "flipX": false,
                  "flipY": false,
                  "height": 47,
                  "ignoreSize": true,
                  "layoutParameter": null,
                  "opacity": 255,
                  "positionPercentX": -0.203036055,
                  "positionPercentY": -0.336538464,
                  "positionType": 0,
                  "rotation": 0,
                  "scaleX": 1.2,
                  "scaleY": 1.2,
                  "sizePercentX": 0.174573049,
                  "sizePercentY": 0.225961536,
                  "sizeType": 0,
                  "tag": 12954,
                  "touchAble": true,
                  "useMergedTexture": false,
                  "visible": true,
                  "width": 92,
                  "x": -107,
                  "y": -70,
                  "capInsetsHeight": 1,
                  "capInsetsWidth": 1,
                  "capInsetsX": 0,
                  "capInsetsY": 0,
                  "disabled": null,
                  "disabledData": {
                    "path": "public/confirm2.png",
                    "plistFile": "",
                    "resourceType": 0
                  },
                  "fontName": "微软雅黑",
                  "fontSize": 14,
                  "fontType": 0,
                  "normal": null,
                  "normalData": {
                    "path": "public/confirm1.png",
                    "plistFile": "",
                    "resourceType": 0
                  },
                  "pressed": null,
                  "pressedData": {
                    "path": "public/confirm2.png",
                    "plistFile": "",
                    "resourceType": 0
                  },
                  "scale9Enable": false,
                  "scale9Height": 47,
                  "scale9Width": 92,
                  "text": "",
                  "textColorB": 255,
                  "textColorG": 255,
                  "textColorR": 255
                }
              },
              {
                "classname": "Label",
                "name": null,
                "children": [],
                "options": {
                  "__type": "LabelSurrogate:#EditorCommon.JsonModel.Component.GUI",
                  "classname": "Label",
                  "name": "textLable",
                  "ZOrder": 0,
                  "actiontag": 32212263,
                  "anchorPointX": 0.5,
                  "anchorPointY": 0.5,
                  "classType": "CocoStudio.EngineAdapterWrap.CSLabel",
                  "colorB": 255,
                  "colorG": 255,
                  "colorR": 255,
                  "customProperty": "",
                  "flipX": false,
                  "flipY": false,
                  "height": 126,
                  "ignoreSize": false,
                  "layoutParameter": null,
                  "opacity": 255,
                  "positionPercentX": 0.0056926,
                  "positionPercentY": 0.105769232,
                  "positionType": 0,
                  "rotation": 0,
                  "scaleX": 1,
                  "scaleY": 1,
                  "sizePercentX": 0.853889942,
                  "sizePercentY": 0.6057692,
                  "sizeType": 0,
                  "tag": 12955,
                  "touchAble": false,
                  "useMergedTexture": false,
                  "visible": true,
                  "width": 450,
                  "x": 3,
                  "y": 22,
                  "areaHeight": 126,
                  "areaWidth": 450,
                  "fontFile": null,
                  "fontName": "微软雅黑",
                  "fontSize": 25,
                  "hAlignment": 1,
                  "text": "您对本游戏有任何意见或建议，请联系客服QQ：800112257",
                  "touchScaleEnable": false,
                  "vAlignment": 1
                }
              },
              {
                "classname": "Button",
                "name": null,
                "children": [],
                "options": {
                  "__type": "ButtonSurrogate:#EditorCommon.JsonModel.Component.GUI",
                  "classname": "Button",
                  "name": "cancelBtn",
                  "ZOrder": 0,
                  "actiontag": 49856391,
                  "anchorPointX": 0.5,
                  "anchorPointY": 0.5,
                  "classType": "CocoStudio.EngineAdapterWrap.CSButton",
                  "colorB": 255,
                  "colorG": 255,
                  "colorR": 255,
                  "customProperty": "",
                  "flipX": false,
                  "flipY": false,
                  "height": 47,
                  "ignoreSize": true,
                  "layoutParameter": null,
                  "opacity": 255,
                  "positionPercentX": 0.204933584,
                  "positionPercentY": -0.336538464,
                  "positionType": 0,
                  "rotation": 0,
                  "scaleX": 1.2,
                  "scaleY": 1.2,
                  "sizePercentX": 0.174573049,
                  "sizePercentY": 0.225961536,
                  "sizeType": 0,
                  "tag": 13426,
                  "touchAble": true,
                  "useMergedTexture": false,
                  "visible": true,
                  "width": 92,
                  "x": 108,
                  "y": -70,
                  "capInsetsHeight": 1,
                  "capInsetsWidth": 1,
                  "capInsetsX": 0,
                  "capInsetsY": 0,
                  "disabled": null,
                  "disabledData": {
                    "path": "public/cancel2.png",
                    "plistFile": "",
                    "resourceType": 0
                  },
                  "fontName": "微软雅黑",
                  "fontSize": 14,
                  "fontType": 0,
                  "normal": null,
                  "normalData": {
                    "path": "public/cancel1.png",
                    "plistFile": "",
                    "resourceType": 0
                  },
                  "pressed": null,
                  "pressedData": {
                    "path": "public/cancel2.png",
                    "plistFile": "",
                    "resourceType": 0
                  },
                  "scale9Enable": false,
                  "scale9Height": 47,
                  "scale9Width": 92,
                  "text": "",
                  "textColorB": 255,
                  "textColorG": 255,
                  "textColorR": 255
                }
              }
            ],
            "options": {
              "__type": "ImageViewSurrogate:#EditorCommon.JsonModel.Component.GUI",
              "classname": "ImageView",
              "name": "bgImg",
              "ZOrder": 0,
              "actiontag": 63068369,
              "anchorPointX": 0.5,
              "anchorPointY": 0.5,
              "classType": "CocoStudio.EngineAdapterWrap.CSImageView",
              "colorB": 255,
              "colorG": 255,
              "colorR": 255,
              "customProperty": "",
              "flipX": false,
              "flipY": false,
              "height": 208,
              "ignoreSize": true,
              "layoutParameter": null,
              "opacity": 255,
              "positionPercentX": 0.5046875,
              "positionPercentY": 0.5,
              "positionType": 0,
              "rotation": 0,
              "scaleX": 1,
              "scaleY": 1,
              "sizePercentX": 0.411718756,
              "sizePercentY": 0.2888889,
              "sizeType": 0,
              "tag": 12952,
              "touchAble": true,
              "useMergedTexture": false,
              "visible": true,
              "width": 527,
              "x": 646,
              "y": 360,
              "capInsetsHeight": 1,
              "capInsetsWidth": 1,
              "capInsetsX": 0,
              "capInsetsY": 0,
              "fileName": null,
              "fileNameData": {
                "path": "public/bg.png",
                "plistFile": "",
                "resourceType": 0
              },
              "scale9Enable": false,
              "scale9Height": 208,
              "scale9Width": 527
            }
          }
        ],
        "options": {
          "__type": "PanelSurrogate:#EditorCommon.JsonModel.Component.GUI",
          "classname": "Panel",
          "name": "Panel_Kefu",
          "ZOrder": 0,
          "actiontag": 64926096,
          "anchorPointX": 0,
          "anchorPointY": 0,
          "classType": "CocoStudio.EngineAdapterWrap.CSPanel",
          "colorB": 0,
          "colorG": 0,
          "colorR": 0,
          "customProperty": "",
          "flipX": false,
          "flipY": false,
          "height": 720,
          "ignoreSize": false,
          "layoutParameter": null,
          "opacity": 255,
          "positionPercentX": 0.0015625,
          "positionPercentY": -0.00277777785,
          "positionType": 0,
          "rotation": 0,
          "scaleX": 1,
          "scaleY": 1,
          "sizePercentX": 1,
          "sizePercentY": 1,
          "sizeType": 0,
          "tag": 12907,
          "touchAble": true,
          "useMergedTexture": false,
          "visible": true,
          "width": 1280,
          "x": 2,
          "y": -2,
          "adaptScreen": false,
          "backGroundImage": null,
          "backGroundImageData": null,
          "backGroundScale9Enable": false,
          "bgColorB": 0,
          "bgColorG": 0,
          "bgColorOpacity": 68,
          "bgColorR": 0,
          "bgEndColorB": 255,
          "bgEndColorG": 200,
          "bgEndColorR": 150,
          "bgStartColorB": 255,
          "bgStartColorG": 255,
          "bgStartColorR": 255,
          "capInsetsHeight": 1,
          "capInsetsWidth": 1,
          "capInsetsX": 0,
          "capInsetsY": 0,
          "clipAble": false,
          "colorType": 1,
          "layoutType": 0,
          "vectorX": 0,
          "vectorY": -0.5
        }
      }
    ],
    "options": {
      "__type": "PanelSurrogate:#EditorCommon.JsonModel.Component.GUI",
      "classname": "Panel",
      "name": "Panel_4",
      "ZOrder": 0,
      "actiontag": -1,
      "anchorPointX": 0,
      "anchorPointY": 0,
      "classType": "CocoStudio.EngineAdapterWrap.CSPanel",
      "colorB": 255,
      "colorG": 255,
      "colorR": 255,
      "customProperty": "",
      "flipX": false,
      "flipY": false,
      "height": 720,
      "ignoreSize": false,
      "layoutParameter": null,
      "opacity": 255,
      "positionPercentX": 0,
      "positionPercentY": 0,
      "positionType": 0,
      "rotation": 0,
      "scaleX": 1,
      "scaleY": 1,
      "sizePercentX": 1,
      "sizePercentY": 1,
      "sizeType": 0,
      "tag": 7,
      "touchAble": true,
      "useMergedTexture": false,
      "visible": true,
      "width": 1280,
      "x": 0,
      "y": 0,
      "adaptScreen": false,
      "backGroundImage": null,
      "backGroundImageData": null,
      "backGroundScale9Enable": false,
      "bgColorB": 255,
      "bgColorG": 200,
      "bgColorOpacity": 0,
      "bgColorR": 150,
      "bgEndColorB": 255,
      "bgEndColorG": 200,
      "bgEndColorR": 150,
      "bgStartColorB": 255,
      "bgStartColorG": 255,
      "bgStartColorR": 255,
      "capInsetsHeight": 1,
      "capInsetsWidth": 1,
      "capInsetsX": 0,
      "capInsetsY": 0,
      "clipAble": false,
      "colorType": 1,
      "layoutType": 0,
      "vectorX": 0,
      "vectorY": -0.5
    }
  }
}