{
  "classname": null,
  "name": null,
  "animation": {
    "classname": null,
    "name": "AnimationManager",
    "actionlist": []
  },
  "dataScale": 1,
  "designHeight": 720,
  "designWidth": 1280,
  "textures": [],
  "texturesPng": [
    "public/baoxiangBg0.png",
    "gameStore/lejuanBg.png",
    "public/huodeLeJuan.png",
    "gameStore/coinBg1.png",
    "public/huodeJinBi.png",
    "public/closeBXBtn.png",
    "public/kaiqiBtn.png",
    "public/baoxiangyige.png",
    "public/bg.png",
    "public/cancel1.png",
    "public/cancel2.png",
    "public/confirm1.png",
    "public/confirm2.png",
    "gameLayer/touxiangBg.png",
    "Ranking/jiangbei1.png",
    "gameLayer/s_head.png",
    "gameChoice/bg2.png",
    "gameLayer/bottom-.png",
    "gameLayer/s_head.png",
    "gameLayer/bt_left_2.png",
    "gameLayer/bt_left_1.png",
    "gameLayer/bt_right_2.png",
    "gameLayer/bt_right_1.png",
    "gameLayer/xutou1.png",
    "gameLayer/xutou2.png",
    "gameLayer/xutou3.png",
    "gameLayer/guizeBtn2.png",
    "gameLayer/guizeBtn1.png",
    "gameLayer/guizeBtn3.png",
    "gameLayer/guiZheJieMian.png",
    "gameLayer/benchibaomaGuize.png",
    "gameLayer/baoXiang.png",
    "gameLayer/desk.png",
    "gameLayer/img_1.png",
    "gameLayer/anniu1.png",
    "gameLayer/anniu2.png",
    "gameLayer/cm_1_1_2.png",
    "gameLayer/cm_1_1.png",
    "gameLayer/cm_1_1_4.png",
    "gameLayer/cm_1_2_2.png",
    "gameLayer/cm_1_2.png",
    "gameLayer/cm_1_2_4.png",
    "gameLayer/cm_1_3_2.png",
    "gameLayer/cm_1_3.png",
    "gameLayer/cm_1_3_4.png",
    "gameLayer/cm_1_4_2.png",
    "gameLayer/cm_1_4.png",
    "gameLayer/cm_1_4_4.png",
    "gameLayer/cm_1_5_2.png",
    "gameLayer/cm_1_5.png",
    "gameLayer/cm_1_5_4.png",
    "gameLayer/cm_1_6_2.png",
    "gameLayer/cm_1_6.png",
    "gameLayer/cm_1_6_4.png",
    "loginUI/return2.png",
    "loginUI/return1.png",
    "gameLayer/haveHeadBg.png",
    "gameLayer/playerlist.png",
    "gameLayer/bg.png",
    "gameLayer/timeWait.png",
    "gameLayer/bankerIcon.png",
    "gameLayer/bankerOn1.png",
    "gameLayer/bankerOn2.png",
    "gameLayer/bankerOn3.png",
    "gameLayer/bankerCancel1.png",
    "gameLayer/bankerCancel2.png",
    "gameLayer/bankerDown1.png",
    "gameLayer/bankerDown2.png",
    "gameLayer/bankerDown3.png",
    "gameLayer/bankerMesseg1.png",
    "gameLayer/bankerMesseg2.png",
    "gameLayer/bankerMesseg3.png",
    "gameLayer/bankerMesseg4.png",
    "gameLayer/bg2.png",
    "public/zoumaBg.png",
    "gameLayer/iconbg.png",
    "gameLayer/gb.png",
    "gameLayer/gb1.png",
    "gameLayer/hcpyPlayerInfo.png",
    "gameLayer/hcpyPlayerInfoX1.png",
    "gameLayer/hcpyPlayerInfoX2.png",
    "gameLayer/hcpyPlayerInfoX3.png",
    "gameLayer/baixian.png",
    "gameLayer/qingdengdai.png",
    "gameLayer/xiandengdai.png",
    "gameLayer/queQianBg.png",
    "gameLayer/queQianOkBtn1.png",
    "gameLayer/queQianOkBtn2.png",
    "gameLayer/queQianCancerBtn1.png",
    "gameLayer/queQianCancerBtn2.png",
    "gameLayer/hcpyYinDao.png",
    "Talk/labaBtn1.png",
    "Talk/labaBtn2.png",
    "Loading/closeBtn.png",
    "gameStore/payRecordBg.png",
    "loginUI/denglukuang.png",
    "loginUI/loginBtn0.png",
    "loginUI/loginBtn1.png",
    "loginUI/textbg.png",
    "loginUI/accountLogin.png",
    "public/closeBXBtn.png",
    "gameChoice/bg2.png",
    "loginUI/quickGame1.png",
    "loginUI/quickGame2.png",
    "loginUI/zhangHaoDengLu1.png",
    "loginUI/zhangHaoDengLu2.png",
    "loginUI/quickRegister1.png",
    "loginUI/quickRegister2.png",
    "loginRewards/qianDaoBg.png",
    "loginRewards/1day.png",
    "loginRewards/yiLing.png",
    "loginRewards/2day.png",
    "loginRewards/3day.png",
    "loginRewards/4day.png",
    "loginRewards/5day.png",
    "loginRewards/6day.png",
    "loginRewards/7day.png",
    "loginRewards/lingQuNormal.png",
    "loginRewards/lingQuSelect.png",
    "loginRewards/lingQuDisable.png",
    "public/returnBtn1.png",
    "public/returnBtn.png",
    "public/tishikuangBg.png",
    "gameStore/payRecordBg.png",
    "loginUI/newPlayRegister.png",
    "public/closeBXBtn.png",
    "loginUI/registerBg.png",
    "loginUI/registerClear0.png",
    "loginUI/registerClear1.png",
    "gameStore/payRecordBg.png",
    "loginUI/personalInformation.png",
    "loginUI/personalInformation2.png",
    "public/closeBXBtn.png",
    "loginUI/sava2.png",
    "loginUI/sava1.png",
    "loginUI/wenzi1.png",
    "loginUI/tx.png",
    "loginUI/headPortraitBg.png",
    "loginUI/vipJinDuTiao.png",
    "loginUI/vipImg1.png",
    "loginUI/levelImg.png",
    "Ranking/RankingBg.png",
    "public/returnBtn1.png",
    "public/returnBtn.png",
    "Ranking/ZongBangBtn.png",
    "Ranking/ZongBangBtn1.png",
    "Ranking/yingliYuebangBtn.png",
    "Ranking/yingliYuebangBtn1.png",
    "Ranking/yingliZhoubangBtn.png",
    "Ranking/yingliZhoubangBtn1.png",
    "Ranking/yingliRibangBtn.png",
    "Ranking/yingliRibangBtn1.png",
    "Ranking/guizeBtn.png",
    "Ranking/guizeBtn1.png",
    "Ranking/paihangmingci.png",
    "Ranking/shuomingguize.png",
    "Ranking/shuomingBg.png",
    "Ranking/beijingtiao.png",
    "Ranking/jiangbei1.png",
    "Ranking/headIconBg.png",
    "Ranking/paihangQian.png",
    "Ranking/paihangWan.png",
    "public/testicon.png",
    "loginUI/logbg2.png",
    "public/closeBXBtn.png",
    "loginUI/sound.png",
    "loginUI/changePlayerBtn.png",
    "loginUI/changePlayerBtn1.png",
    "loginUI/headKuang.png",
    "public/testicon.png",
    "Settlement/bg.png",
    "Settlement/continue1.png",
    "Settlement/continue2.png",
    "Settlement/exit.png",
    "Settlement/exit1.png",
    "Settlement/win.png",
    "Settlement/subtract.png",
    "gameStore/storeBg.png",
    "public/storeClose.png",
    "public/storeClose2.png",
    "gameStore/coin1.png",
    "gameStore/coin2.png",
    "gameStore/lejuan1.png",
    "gameStore/lejuan2.png",
    "gameStore/chongzhika1.png",
    "gameStore/chongzhika2.png",
    "gameStore/payRecordBtnNormal.png",
    "gameStore/payRecordBtnSelect.png",
    "gameStore/399w.png",
    "gameStore/8_1.png",
    "gameStore/8_2.png",
    "gameStore/218w.png",
    "gameStore/7_1.png",
    "gameStore/7_2.png",
    "gameStore/83w.png",
    "gameStore/6_1.png",
    "gameStore/6_2.png",
    "gameStore/49w.png",
    "gameStore/5_1.png",
    "gameStore/5_2.png",
    "gameStore/19w.png",
    "gameStore/4_1.png",
    "gameStore/4_2.png",
    "gameStore/9w.png",
    "gameStore/3_1.png",
    "gameStore/3_2.png",
    "gameStore/3w.png",
    "gameStore/2_1.png",
    "gameStore/2_2.png",
    "gameStore/1w.png",
    "gameStore/1_1.png",
    "gameStore/1_2.png",
    "gameStore/henTiao.png",
    "gameStore/henTiaoZhong.png",
    "gameStore/lejuanBg.png",
    "gameStore/coinBtn0.png",
    "gameStore/coinBtn1.png",
    "gameStore/coinBg3.png",
    "gameStore/lejuan20Btn0.png",
    "gameStore/lejuan20Btn1.png",
    "gameStore/coinBg2.png",
    "gameStore/lejuanBtn0.png",
    "gameStore/lejuanBtn1.png",
    "gameStore/chongzhikaBg0.png",
    "gameStore/chongZhi500Btn0.png",
    "gameStore/chongZhi500Btn1.png",
    "gameStore/chongzhikaBg1.png",
    "gameStore/chongZhi1500Btn0.png",
    "gameStore/chongZhi1500Btn1.png",
    "gameStore/chongzhikaBg2.png",
    "gameStore/chongZhi2500Btn0.png",
    "gameStore/chongZhi2500Btn1.png",
    "gameStore/kehuankuang2.png",
    "gameStore/keHuanQuxaio0.png",
    "gameStore/keHuanQuxaio1.png",
    "gameStore/keHuanQueDing0.png",
    "gameStore/keHuanQueDing1.png",
    "gameStore/kehuankuang1.png",
    "gameStore/shoujihaoBg.png",
    "gameStore/shoujiBtn0.png",
    "gameStore/shoujiBtn1.png",
    "gameStore/shoujiBtn2.png",
    "gameStore/closeJianRuBtn.png",
    "gameStore/jianRuKuang.png",
    "gameStore/payRecordBg.png",
    "gameStore/goumaizi.png",
    "gameStore/goumaitou.png",
    "gameStore/wenxintishi.png",
    "gameStore/daoju1.png",
    "gameStore/daoju2.png",
    "gameStore/baoxiang10.png",
    "gameStore/coin10w2.png",
    "gameStore/baoxiang20.png",
    "gameStore/coin20w2.png",
    "gameStore/baoxiang30.png",
    "gameStore/coin50w2.png",
    "gameStore/baoxiang40.png",
    "gameStore/coin100w2.png",
    "gameStore/xiaolaba.png",
    "gameStore/timeItemBg.png",
    "Talk/bg.png",
    "Talk/X1.png",
    "Talk/X2.png",
    "Talk/fasongBtn1.png",
    "Talk/fasongBtn2.png",
    "Talk/shurukuang.png",
    "Talk/fengexian.png"
  ],
  "version": "1.6.0.0",
  "widgetTree": {
    "classname": "Panel",
    "name": null,
    "children": [
      {
        "classname": "Label",
        "name": null,
        "children": [
          {
            "classname": "ImageView",
            "name": null,
            "children": [],
            "options": {
              "__type": "ImageViewSurrogate:#EditorCommon.JsonModel.Component.GUI",
              "classname": "ImageView",
              "name": "Image_2",
              "ZOrder": 0,
              "actiontag": 27129783,
              "anchorPointX": 0.5,
              "anchorPointY": 0.5,
              "classType": "CocoStudio.EngineAdapterWrap.CSImageView",
              "colorB": 255,
              "colorG": 255,
              "colorR": 255,
              "customProperty": "",
              "flipX": false,
              "flipY": false,
              "height": 2,
              "ignoreSize": true,
              "layoutParameter": null,
              "opacity": 255,
              "positionPercentX": 0,
              "positionPercentY": -0.5555556,
              "positionType": 0,
              "rotation": 0,
              "scaleX": 1,
              "scaleY": 1,
              "sizePercentX": 0.210526317,
              "sizePercentY": 0.8888889,
              "sizeType": 0,
              "tag": 11200,
              "touchAble": false,
              "useMergedTexture": false,
              "visible": true,
              "width": 396,
              "x": 0,
              "y": -50,
              "capInsetsHeight": 1,
              "capInsetsWidth": 1,
              "capInsetsX": 0,
              "capInsetsY": 0,
              "fileName": null,
              "fileNameData": {
                "path": "Talk/fengexian.png",
                "plistFile": "",
                "resourceType": 0
              },
              "scale9Enable": false,
              "scale9Height": 2,
              "scale9Width": 396
            }
          }
        ],
        "options": {
          "__type": "LabelSurrogate:#EditorCommon.JsonModel.Component.GUI",
          "classname": "Label",
          "name": "lab",
          "ZOrder": 0,
          "actiontag": 31817621,
          "anchorPointX": 0.5,
          "anchorPointY": 0.5,
          "classType": "CocoStudio.EngineAdapterWrap.CSLabel",
          "colorB": 255,
          "colorG": 255,
          "colorR": 255,
          "customProperty": "",
          "flipX": false,
          "flipY": false,
          "height": 90,
          "ignoreSize": false,
          "layoutParameter": null,
          "opacity": 255,
          "positionPercentX": 0.149516538,
          "positionPercentY": 0.07189149,
          "positionType": 0,
          "rotation": 0,
          "scaleX": 1,
          "scaleY": 1,
          "sizePercentX": 0.296875,
          "sizePercentY": 0.125,
          "sizeType": 0,
          "tag": 11199,
          "touchAble": false,
          "useMergedTexture": false,
          "visible": true,
          "width": 380,
          "x": 191,
          "y": 51,
          "areaHeight": 90,
          "areaWidth": 380,
          "fontFile": null,
          "fontName": "微软雅黑",
          "fontSize": 20,
          "hAlignment": 0,
          "text": "",
          "touchScaleEnable": false,
          "vAlignment": 0
        }
      }
    ],
    "options": {
      "__type": "PanelSurrogate:#EditorCommon.JsonModel.Component.GUI",
      "classname": "Panel",
      "name": "Panel_29",
      "ZOrder": 0,
      "actiontag": 52597448,
      "anchorPointX": 0,
      "anchorPointY": 0,
      "classType": "CocoStudio.EngineAdapterWrap.CSPanel",
      "colorB": 255,
      "colorG": 255,
      "colorR": 255,
      "customProperty": "",
      "flipX": false,
      "flipY": false,
      "height": 720,
      "ignoreSize": false,
      "layoutParameter": null,
      "opacity": 255,
      "positionPercentX": 0,
      "positionPercentY": 0,
      "positionType": 0,
      "rotation": 0,
      "scaleX": 1,
      "scaleY": 1,
      "sizePercentX": 1,
      "sizePercentY": 1,
      "sizeType": 0,
      "tag": 11198,
      "touchAble": true,
      "useMergedTexture": false,
      "visible": true,
      "width": 1280,
      "x": 0,
      "y": 0,
      "adaptScreen": false,
      "backGroundImage": null,
      "backGroundImageData": null,
      "backGroundScale9Enable": false,
      "bgColorB": 255,
      "bgColorG": 200,
      "bgColorOpacity": 0,
      "bgColorR": 150,
      "bgEndColorB": 255,
      "bgEndColorG": 200,
      "bgEndColorR": 150,
      "bgStartColorB": 255,
      "bgStartColorG": 255,
      "bgStartColorR": 255,
      "capInsetsHeight": 1,
      "capInsetsWidth": 1,
      "capInsetsX": 0,
      "capInsetsY": 0,
      "clipAble": false,
      "colorType": 1,
      "layoutType": 0,
      "vectorX": 0,
      "vectorY": -0.5
    }
  }
}