{
  "classname": null,
  "name": null,
  "animation": {
    "classname": null,
    "name": "AnimationManager",
    "actionlist": []
  },
  "dataScale": 1,
  "designHeight": 720,
  "designWidth": 1280,
  "textures": [],
  "texturesPng": [
    "BackLayer/back_bg.png",
    "BackLayer/back_region1.png",
    "BackLayer/back_region2.png",
    "BackLayer/back_sound1.png",
    "BackLayer/back_music2.png",
    "BackLayer/back_sound2.png",
    "BackLayer/back_music1.png",
    "public/baoxiangBg0.png",
    "gameStore/lejuanBg.png",
    "public/huodeLeJuan.png",
    "gameStore/coinBg1.png",
    "public/huodeJinBi.png",
    "public/closeBXBtn.png",
    "public/kaiqiBtn.png",
    "public/baoxiangyige.png",
    "benefits/benefitsbg.png",
    "benefits/sureBtn1.png",
    "benefits/sureBtn2.png",
    "benefits/exitBtn.png",
    "public/bg.png",
    "public/cancel1.png",
    "public/cancel2.png",
    "public/confirm1.png",
    "public/confirm2.png",
    "gameLayer/touxiangBg.png",
    "Ranking/jiangbei1.png",
    "gameLayer/s_head.png",
    "firstRecUi/bg.png",
    "firstRecUi/recBtn1.png",
    "firstRecUi/recBtn2.png",
    "firstRecUi/exitBtn1.png",
    "firstRecUi/exitBtn2.png",
    "gameChoice/bg2.png",
    "gameLayer/bottom-.png",
    "gameLayer/s_head.png",
    "gameLayer/xutou1.png",
    "gameLayer/xutou2.png",
    "gameLayer/xutou3.png",
    "gameLayer/guizeBtn2.png",
    "gameLayer/guizeBtn1.png",
    "gameLayer/guizeBtn3.png",
    "gameLayer/baoXiang.png",
    "gameLayer/desk.png",
    "gameLayer/img_light1.png",
    "gameLayer/img_light2.png",
    "gameLayer/img_light3.png",
    "gameLayer/img_light4.png",
    "gameLayer/icon_new.png",
    "gameLayer/anniu1.png",
    "gameLayer/anniu2.png",
    "gameLayer/anniu3.png",
    "gameLayer/anniu4.png",
    "gameLayer/cm_1_1.png",
    "gameLayer/cm_1_1_2.png",
    "gameLayer/cm_1_1_4.png",
    "gameLayer/cm_1_2_2.png",
    "gameLayer/cm_1_2.png",
    "gameLayer/cm_1_2_4.png",
    "gameLayer/cm_1_3_2.png",
    "gameLayer/cm_1_3.png",
    "gameLayer/cm_1_3_4.png",
    "gameLayer/cm_1_4_2.png",
    "gameLayer/cm_1_4.png",
    "gameLayer/cm_1_4_4.png",
    "gameLayer/cm_1_5_2.png",
    "gameLayer/cm_1_5.png",
    "gameLayer/cm_1_5_4.png",
    "gameLayer/cm_1_6_2.png",
    "gameLayer/cm_1_6.png",
    "gameLayer/cm_1_6_4.png",
    "gameLayer/returnBtn0.png",
    "gameLayer/returnBtn1.png",
    "gameLayer/haveHeadBg.png",
    "gameLayer/bg.png",
    "gameLayer/timeWait.png",
    "gameLayer/bankerIcon.png",
    "gameLayer/bankerOn1.png",
    "gameLayer/bankerOn2.png",
    "gameLayer/bankerOn3.png",
    "gameLayer/bankerCancel1.png",
    "gameLayer/bankerCancel2.png",
    "gameLayer/bankerDown1.png",
    "gameLayer/bankerDown2.png",
    "gameLayer/bankerDown3.png",
    "gameLayer/bankerMesseg1.png",
    "gameLayer/bankerMesseg2.png",
    "gameLayer/bankerMesseg3.png",
    "gameLayer/bankerMesseg4.png",
    "gameLayer/bg2.png",
    "gameLayer/hcpyPlayerInfo.png",
    "gameLayer/hcpyPlayerInfoX1.png",
    "gameLayer/hcpyPlayerInfoX2.png",
    "gameLayer/hcpyPlayerInfoX3.png",
    "gameLayer/qingdengdai.png",
    "gameLayer/xiandengdai.png",
    "gameLayer/hcpyYinDao.png",
    "gameLayer/closeSound.png",
    "gameLayer/openSound.png",
    "gameLayer/add1.png",
    "gameLayer/add2.png",
    "gameLayer/add3.png",
    "gameLayer/img_8.png",
    "gameLayer/guiZheJieMian.png",
    "gameLayer/benchibaomaGuize.png",
    "Loading/closeBtn.png",
    "gameStore/payRecordBg.png",
    "loginUI/denglukuang.png",
    "loginUI/loginBtn0.png",
    "loginUI/loginBtn1.png",
    "loginUI/textbg.png",
    "loginUI/accountLogin.png",
    "loginUI/zhuceBtn1.png",
    "loginUI/zhuceBtn2.png",
    "public/closeBXBtn.png",
    "PersonalInfo/zhaohuimima.png",
    "gameChoice/bg2.png",
    "loginUI/quickGame1.png",
    "loginUI/quickGame2.png",
    "loginUI/zhangHaoDengLu1.png",
    "loginUI/zhangHaoDengLu2.png",
    "loginUI/quickRegister1.png",
    "loginUI/quickRegister2.png",
    "loginUI/noticeBtn1.png",
    "loginUI/noticeBtn2.png",
    "loginUI/noticeBtn3.png",
    "loginUI/kefuBtn1.png",
    "loginUI/kefuBtn2.png",
    "loginUI/kefuBtn3.png",
    "public/bg.png",
    "public/confirm1.png",
    "public/confirm2.png",
    "public/cancel1.png",
    "public/cancel2.png",
    "loginRewards/qianDaoBg.png",
    "loginRewards/1day.png",
    "loginRewards/yiLing.png",
    "loginRewards/addtwo.png",
    "loginRewards/2day.png",
    "loginRewards/3day.png",
    "loginRewards/4day.png",
    "loginRewards/5day.png",
    "loginRewards/6day.png",
    "loginRewards/7day.png",
    "loginRewards/VipNormal.png",
    "loginRewards/VipSelect.png",
    "loginRewards/lingQuNormal.png",
    "loginRewards/lingQuSelect.png",
    "loginRewards/lingQuDisable.png",
    "public/returnBtn1.png",
    "public/returnBtn.png",
    "public/tishikuangBg.png",
    "gameStore/payRecordBg.png",
    "loginUI/newPlayRegister.png",
    "public/closeBXBtn.png",
    "loginUI/registerBg.png",
    "loginUI/registerClear0.png",
    "loginUI/registerClear1.png",
    "gameLayer/queQianBg.png",
    "gameLayer/queQianOkBtn1.png",
    "gameLayer/queQianOkBtn2.png",
    "gameLayer/queQianCancerBtn1.png",
    "gameLayer/queQianCancerBtn2.png",
    "PersonalInfo/bg.png",
    "public/closeBXBtn.png",
    "loginUI/levelImg.png",
    "loginUI/vipImg1.png",
    "loginUI/vipJinDuTiao.png",
    "loginUI/headPortraitBg.png",
    "loginUI/tx.png",
    "loginUI/sava2.png",
    "loginUI/sava1.png",
    "loginUI/personalInformation2.png",
    "loginUI/personalInformation.png",
    "loginUI/copyBtn.png",
    "loginUI/bindBtn1.png",
    "loginUI/bindBtn2.png",
    "loginUI/bindBtn3.png",
    "loginUI/tishi.png",
    "PersonalInfo/PersonalInfoBtn1.png",
    "PersonalInfo/PersonalInfoBtn2.png",
    "PersonalInfo/xiugaimimaBtn1.png",
    "PersonalInfo/xiugaimimaBtn2.png",
    "PersonalInfo/zhanghuanquan1.png",
    "PersonalInfo/zhanghuanquan2.png",
    "PersonalInfo/xiugaimima.png",
    "PersonalInfo/mima2.png",
    "PersonalInfo/confirmBtn1.png",
    "PersonalInfo/confirmBtn2.png",
    "PersonalInfo/zhaohuimima.png",
    "PersonalInfo/mibaowenti.png",
    "PersonalInfo/youxiangwenti.png",
    "PersonalInfo/setBtn1.png",
    "PersonalInfo/setBtn2.png",
    "PersonalInfo/zhanghuanquan.png",
    "PersonalInfo/xiuGai1.png",
    "PersonalInfo/xiuGai2.png",
    "Ranking/RankingBg.png",
    "public/returnBtn1.png",
    "public/returnBtn.png",
    "Ranking/ZongBangBtn.png",
    "Ranking/ZongBangBtn1.png",
    "Ranking/yingliYuebangBtn.png",
    "Ranking/yingliYuebangBtn1.png",
    "Ranking/yingliZhoubangBtn.png",
    "Ranking/yingliZhoubangBtn1.png",
    "Ranking/yingliRibangBtn.png",
    "Ranking/yingliRibangBtn1.png",
    "Ranking/guizeBtn.png",
    "Ranking/guizeBtn1.png",
    "Ranking/paihangmingci.png",
    "Ranking/shuomingguize.png",
    "Ranking/shuomingBg.png",
    "Ranking/beijingtiao.png",
    "Ranking/jiangbei1.png",
    "Ranking/headIconBg.png",
    "Ranking/paihangQian.png",
    "Ranking/paihangWan.png",
    "public/testicon.png",
    "loginUI/logbg2.png",
    "public/testicon.png",
    "loginUI/headKuang.png",
    "loginUI/changePlayerBtn.png",
    "loginUI/changePlayerBtn1.png",
    "loginUI/sound.png",
    "public/closeBXBtn.png",
    "loginUI/exitBg_1.png",
    "loginUI/sureBtn1.png",
    "loginUI/sureBtn2.png",
    "loginUI/closeBtn1.png",
    "loginUI/closeBtn2.png",
    "Settlement/bg.png",
    "Settlement/X1.png",
    "Settlement/X2.png",
    "Settlement/subtract.png",
    "Settlement/win.png",
    "gameLayer/img_2.png",
    "gameStore/storeBg.png",
    "public/storeClose.png",
    "public/storeClose2.png",
    "gameStore/coin1.png",
    "gameStore/coin2.png",
    "gameStore/lejuan1.png",
    "gameStore/lejuan2.png",
    "gameStore/chongzhika1.png",
    "gameStore/chongzhika2.png",
    "gameStore/payRecordBtnNormal.png",
    "gameStore/payRecordBtnSelect.png",
    "gameStore/1100w.png",
    "gameStore/10_1.png",
    "gameStore/10_2.png",
    "gameStore/575w.png",
    "gameStore/9_1.png",
    "gameStore/9_2.png",
    "gameStore/218w.png",
    "gameStore/7_1.png",
    "gameStore/7_2.png",
    "gameStore/83w.png",
    "gameStore/6_1.png",
    "gameStore/6_2.png",
    "gameStore/49w.png",
    "gameStore/5_1.png",
    "gameStore/5_2.png",
    "gameStore/19w.png",
    "gameStore/4_1.png",
    "gameStore/4_2.png",
    "gameStore/henTiao.png",
    "gameStore/henTiaoZhong.png",
    "gameStore/9w.png",
    "gameStore/3_1.png",
    "gameStore/3_2.png",
    "gameStore/1w.png",
    "gameStore/1_2.png",
    "gameStore/1_1.png",
    "gameStore/2000coin.png",
    "gameStore/1Btn2.png",
    "gameStore/1Btn1.png",
    "gameStore/coinBg3.png",
    "gameStore/lejuan20Btn0.png",
    "gameStore/lejuan20Btn1.png",
    "gameStore/coinBg2.png",
    "gameStore/lejuanBtn0.png",
    "gameStore/lejuanBtn1.png",
    "gameStore/chongzhikaBg0.png",
    "gameStore/12Btn2.png",
    "gameStore/12Btn1.png",
    "gameStore/chongzhikaBg1.png",
    "gameStore/20Btn2.png",
    "gameStore/20Btn1.png",
    "gameStore/chongzhikaBg2.png",
    "gameStore/45Btn2.png",
    "gameStore/45Btn1.png",
    "gameStore/chongzhikaBg4.png",
    "gameStore/85Btn2.png",
    "gameStore/85Btn1.png",
    "gameStore/kehuankuang2.png",
    "gameStore/keHuanQuxaio0.png",
    "gameStore/keHuanQuxaio1.png",
    "gameStore/keHuanQueDing0.png",
    "gameStore/keHuanQueDing1.png",
    "gameStore/kehuankuang1.png",
    "gameStore/shoujihaoBg.png",
    "gameStore/shoujiBtn0.png",
    "gameStore/shoujiBtn1.png",
    "gameStore/shoujiBtn2.png",
    "gameStore/closeJianRuBtn.png",
    "gameStore/jianRuKuang.png",
    "gameStore/payRecordBg.png",
    "gameStore/goumaizi.png",
    "gameStore/goumaitou.png",
    "gameStore/duihuanzi.png",
    "gameStore/wenxintishi.png",
    "gameStore/daoju1.png",
    "gameStore/daoju2.png",
    "gameStore/baoxiang10.png",
    "gameStore/coin10w2.png",
    "gameStore/baoxiang20.png",
    "gameStore/coin20w2.png",
    "gameStore/baoxiang30.png",
    "gameStore/coin50w2.png",
    "gameStore/baoxiang40.png",
    "gameStore/coin100w2.png",
    "gameStore/xiaolaba.png",
    "gameStore/baoxiang1.png",
    "gameStore/1w2.png",
    "gameStore/trumpetbg.png",
    "gameStore/duihuanBtn1.png",
    "gameStore/duihuanBtn2.png",
    "gameStore/viptq2.png",
    "gameStore/viptq3.png",
    "Talk/gui-talk-button-liaotian.png",
    "Talk/bg.png",
    "Talk/fasongBtn1.png",
    "Talk/fasongBtn2.png",
    "Talk/shurukuang.png",
    "Talk/gui-gm-button-left.png",
    "Talk/gui-gm-button-left-choose.png",
    "Talk/leftBg.png",
    "Talk/biaoqingBtn1.png",
    "Talk/biaoqingBtn2.png",
    "Talk/biaoqingBtn3.png",
    "Talk/chatBtn1.png",
    "Talk/chatBtn2.png",
    "Talk/chatBtn3.png",
    "Talk/00.png",
    "Talk/01.png",
    "Talk/02.png",
    "Talk/03.png",
    "Talk/04.png",
    "Talk/05.png",
    "Talk/06.png",
    "Talk/07.png",
    "Talk/08.png",
    "Talk/09.png",
    "Talk/10.png",
    "Talk/11.png",
    "Talk/12.png",
    "Talk/13.png",
    "Talk/14.png",
    "Talk/15.png",
    "Talk/16.png",
    "Talk/17.png",
    "Talk/18.png",
    "Talk/19.png",
    "Talk/20.png",
    "Talk/21.png",
    "Talk/22.png",
    "Talk/23.png",
    "Talk/tishi.png",
    "gameStore/timeItemBg.png"
  ],
  "version": "1.6.0.0",
  "widgetTree": {
    "classname": "Panel",
    "name": null,
    "children": [
      {
        "classname": "ImageView",
        "name": null,
        "children": [
          {
            "classname": "Label",
            "name": null,
            "children": [],
            "options": {
              "__type": "LabelSurrogate:#EditorCommon.JsonModel.Component.GUI",
              "classname": "Label",
              "name": "label",
              "ZOrder": 0,
              "actiontag": 38680022,
              "anchorPointX": 0.5,
              "anchorPointY": 0.5,
              "classType": "CocoStudio.EngineAdapterWrap.CSLabel",
              "colorB": 255,
              "colorG": 255,
              "colorR": 255,
              "customProperty": "",
              "flipX": false,
              "flipY": false,
              "height": 27,
              "ignoreSize": true,
              "layoutParameter": null,
              "opacity": 255,
              "positionPercentX": 0,
              "positionPercentY": 0,
              "positionType": 1,
              "rotation": 0,
              "scaleX": 1,
              "scaleY": 1,
              "sizePercentX": 0.6644737,
              "sizePercentY": 0.5192308,
              "sizeType": 0,
              "tag": 5349,
              "touchAble": false,
              "useMergedTexture": false,
              "visible": true,
              "width": 202,
              "x": 0,
              "y": 0,
              "areaHeight": 0,
              "areaWidth": 0,
              "fontFile": null,
              "fontName": "微软雅黑",
              "fontSize": 20,
              "hAlignment": 0,
              "text": "2015/10/15 13:39:29",
              "touchScaleEnable": false,
              "vAlignment": 0
            }
          }
        ],
        "options": {
          "__type": "ImageViewSurrogate:#EditorCommon.JsonModel.Component.GUI",
          "classname": "ImageView",
          "name": "time",
          "ZOrder": 0,
          "actiontag": 10784712,
          "anchorPointX": 0.5,
          "anchorPointY": 0.5,
          "classType": "CocoStudio.EngineAdapterWrap.CSImageView",
          "colorB": 255,
          "colorG": 255,
          "colorR": 255,
          "customProperty": "",
          "flipX": false,
          "flipY": false,
          "height": 52,
          "ignoreSize": true,
          "layoutParameter": null,
          "opacity": 255,
          "positionPercentX": -0.24375,
          "positionPercentY": -0.027777778,
          "positionType": 0,
          "rotation": 0,
          "scaleX": 1,
          "scaleY": 1,
          "sizePercentX": 0.2375,
          "sizePercentY": 0.0722222254,
          "sizeType": 0,
          "tag": 7435,
          "touchAble": false,
          "useMergedTexture": false,
          "visible": true,
          "width": 304,
          "x": -312,
          "y": -20,
          "capInsetsHeight": 1,
          "capInsetsWidth": 1,
          "capInsetsX": 0,
          "capInsetsY": 0,
          "fileName": null,
          "fileNameData": {
            "path": "gameStore/timeItemBg.png",
            "plistFile": "",
            "resourceType": 0
          },
          "scale9Enable": false,
          "scale9Height": 52,
          "scale9Width": 304
        }
      },
      {
        "classname": "ImageView",
        "name": null,
        "children": [
          {
            "classname": "Label",
            "name": null,
            "children": [],
            "options": {
              "__type": "LabelSurrogate:#EditorCommon.JsonModel.Component.GUI",
              "classname": "Label",
              "name": "label",
              "ZOrder": 0,
              "actiontag": 35537814,
              "anchorPointX": 0.5,
              "anchorPointY": 0.5,
              "classType": "CocoStudio.EngineAdapterWrap.CSLabel",
              "colorB": 255,
              "colorG": 255,
              "colorR": 255,
              "customProperty": "",
              "flipX": false,
              "flipY": false,
              "height": 27,
              "ignoreSize": true,
              "layoutParameter": null,
              "opacity": 255,
              "positionPercentX": 0,
              "positionPercentY": 0,
              "positionType": 1,
              "rotation": 0,
              "scaleX": 1,
              "scaleY": 1,
              "sizePercentX": 0.358552635,
              "sizePercentY": 0.5192308,
              "sizeType": 0,
              "tag": 5350,
              "touchAble": false,
              "useMergedTexture": false,
              "visible": true,
              "width": 109,
              "x": 0,
              "y": 0,
              "areaHeight": 0,
              "areaWidth": 0,
              "fontFile": null,
              "fontName": "微软雅黑",
              "fontSize": 20,
              "hAlignment": 1,
              "text": "33333.00元",
              "touchScaleEnable": false,
              "vAlignment": 0
            }
          }
        ],
        "options": {
          "__type": "ImageViewSurrogate:#EditorCommon.JsonModel.Component.GUI",
          "classname": "ImageView",
          "name": "RMB",
          "ZOrder": 0,
          "actiontag": 2422312,
          "anchorPointX": 0.5,
          "anchorPointY": 0.5,
          "classType": "CocoStudio.EngineAdapterWrap.CSImageView",
          "colorB": 255,
          "colorG": 255,
          "colorR": 255,
          "customProperty": "",
          "flipX": false,
          "flipY": false,
          "height": 52,
          "ignoreSize": true,
          "layoutParameter": null,
          "opacity": 255,
          "positionPercentX": 0,
          "positionPercentY": -0.027777778,
          "positionType": 0,
          "rotation": 0,
          "scaleX": 1,
          "scaleY": 1,
          "sizePercentX": 0.2375,
          "sizePercentY": 0.0722222254,
          "sizeType": 0,
          "tag": 7436,
          "touchAble": false,
          "useMergedTexture": false,
          "visible": true,
          "width": 304,
          "x": 0,
          "y": -20,
          "capInsetsHeight": 1,
          "capInsetsWidth": 1,
          "capInsetsX": 0,
          "capInsetsY": 0,
          "fileName": null,
          "fileNameData": {
            "path": "gameStore/timeItemBg.png",
            "plistFile": "",
            "resourceType": 0
          },
          "scale9Enable": false,
          "scale9Height": 52,
          "scale9Width": 304
        }
      },
      {
        "classname": "ImageView",
        "name": null,
        "children": [
          {
            "classname": "Label",
            "name": null,
            "children": [],
            "options": {
              "__type": "LabelSurrogate:#EditorCommon.JsonModel.Component.GUI",
              "classname": "Label",
              "name": "label",
              "ZOrder": 0,
              "actiontag": 51404875,
              "anchorPointX": 0.5,
              "anchorPointY": 0.5,
              "classType": "CocoStudio.EngineAdapterWrap.CSLabel",
              "colorB": 255,
              "colorG": 255,
              "colorR": 255,
              "customProperty": "",
              "flipX": false,
              "flipY": false,
              "height": 27,
              "ignoreSize": true,
              "layoutParameter": null,
              "opacity": 255,
              "positionPercentX": 0,
              "positionPercentY": 0,
              "positionType": 0,
              "rotation": 0,
              "scaleX": 1,
              "scaleY": 1,
              "sizePercentX": 0.2236842,
              "sizePercentY": 0.5192308,
              "sizeType": 0,
              "tag": 5351,
              "touchAble": false,
              "useMergedTexture": false,
              "visible": true,
              "width": 68,
              "x": 0,
              "y": 0,
              "areaHeight": 0,
              "areaWidth": 0,
              "fontFile": null,
              "fontName": "微软雅黑",
              "fontSize": 20,
              "hAlignment": 0,
              "text": "1166萬",
              "touchScaleEnable": false,
              "vAlignment": 0
            }
          }
        ],
        "options": {
          "__type": "ImageViewSurrogate:#EditorCommon.JsonModel.Component.GUI",
          "classname": "ImageView",
          "name": "coin",
          "ZOrder": 0,
          "actiontag": 55976614,
          "anchorPointX": 0.5,
          "anchorPointY": 0.5,
          "classType": "CocoStudio.EngineAdapterWrap.CSImageView",
          "colorB": 255,
          "colorG": 255,
          "colorR": 255,
          "customProperty": "",
          "flipX": false,
          "flipY": false,
          "height": 52,
          "ignoreSize": true,
          "layoutParameter": null,
          "opacity": 255,
          "positionPercentX": 0.24375,
          "positionPercentY": -0.027777778,
          "positionType": 0,
          "rotation": 0,
          "scaleX": 1,
          "scaleY": 1,
          "sizePercentX": 0.2375,
          "sizePercentY": 0.0722222254,
          "sizeType": 0,
          "tag": 7437,
          "touchAble": false,
          "useMergedTexture": false,
          "visible": true,
          "width": 304,
          "x": 312,
          "y": -20,
          "capInsetsHeight": 1,
          "capInsetsWidth": 1,
          "capInsetsX": 0,
          "capInsetsY": 0,
          "fileName": null,
          "fileNameData": {
            "path": "gameStore/timeItemBg.png",
            "plistFile": "",
            "resourceType": 0
          },
          "scale9Enable": false,
          "scale9Height": 52,
          "scale9Width": 304
        }
      }
    ],
    "options": {
      "__type": "PanelSurrogate:#EditorCommon.JsonModel.Component.GUI",
      "classname": "Panel",
      "name": "Panel_37",
      "ZOrder": 0,
      "actiontag": -1,
      "anchorPointX": 0.5,
      "anchorPointY": 0.5,
      "classType": "CocoStudio.EngineAdapterWrap.CSPanel",
      "colorB": 255,
      "colorG": 255,
      "colorR": 255,
      "customProperty": "",
      "flipX": false,
      "flipY": false,
      "height": 720,
      "ignoreSize": false,
      "layoutParameter": null,
      "opacity": 255,
      "positionPercentX": 0,
      "positionPercentY": 0,
      "positionType": 0,
      "rotation": 0,
      "scaleX": 1,
      "scaleY": 1,
      "sizePercentX": 1,
      "sizePercentY": 1,
      "sizeType": 0,
      "tag": 5340,
      "touchAble": true,
      "useMergedTexture": false,
      "visible": true,
      "width": 1280,
      "x": 640,
      "y": 360,
      "adaptScreen": false,
      "backGroundImage": null,
      "backGroundImageData": null,
      "backGroundScale9Enable": false,
      "bgColorB": 255,
      "bgColorG": 200,
      "bgColorOpacity": 0,
      "bgColorR": 150,
      "bgEndColorB": 255,
      "bgEndColorG": 200,
      "bgEndColorR": 150,
      "bgStartColorB": 255,
      "bgStartColorG": 255,
      "bgStartColorR": 255,
      "capInsetsHeight": 1,
      "capInsetsWidth": 1,
      "capInsetsX": 0,
      "capInsetsY": 0,
      "clipAble": false,
      "colorType": 0,
      "layoutType": 0,
      "vectorX": 0,
      "vectorY": -0.5
    }
  }
}