{
  "classname": null,
  "name": null,
  "animation": {
    "classname": null,
    "name": "AnimationManager",
    "actionlist": []
  },
  "dataScale": 1,
  "designHeight": 720,
  "designWidth": 1280,
  "textures": [],
  "texturesPng": [
    "BackLayer/back_bg.png",
    "BackLayer/back_region1.png",
    "BackLayer/back_region2.png",
    "BackLayer/back_sound1.png",
    "BackLayer/back_music2.png",
    "BackLayer/back_sound2.png",
    "BackLayer/back_music1.png",
    "public/baoxiangBg0.png",
    "gameStore/lejuanBg.png",
    "public/huodeLeJuan.png",
    "gameStore/coinBg1.png",
    "public/huodeJinBi.png",
    "public/closeBXBtn.png",
    "public/kaiqiBtn.png",
    "public/baoxiangyige.png",
    "benefits/benefitsbg.png",
    "benefits/sureBtn1.png",
    "benefits/sureBtn2.png",
    "benefits/exitBtn.png",
    "public/bg.png",
    "public/cancel1.png",
    "public/cancel2.png",
    "public/confirm1.png",
    "public/confirm2.png",
    "gameLayer/touxiangBg.png",
    "Ranking/jiangbei1.png",
    "gameLayer/s_head.png",
    "firstRecUi/bg.png",
    "firstRecUi/recBtn1.png",
    "firstRecUi/recBtn2.png",
    "firstRecUi/exitBtn1.png",
    "firstRecUi/exitBtn2.png",
    "gameChoice/bg2.png",
    "gameLayer/bottom-.png",
    "gameLayer/s_head.png",
    "gameLayer/xutou1.png",
    "gameLayer/xutou2.png",
    "gameLayer/xutou3.png",
    "gameLayer/guizeBtn2.png",
    "gameLayer/guizeBtn1.png",
    "gameLayer/guizeBtn3.png",
    "gameLayer/baoXiang.png",
    "gameLayer/desk.png",
    "gameLayer/img_light1.png",
    "gameLayer/img_light2.png",
    "gameLayer/img_light3.png",
    "gameLayer/img_light4.png",
    "gameLayer/icon_new.png",
    "gameLayer/anniu1.png",
    "gameLayer/anniu2.png",
    "gameLayer/anniu3.png",
    "gameLayer/anniu4.png",
    "gameLayer/cm_1_1.png",
    "gameLayer/cm_1_1_2.png",
    "gameLayer/cm_1_1_4.png",
    "gameLayer/cm_1_2_2.png",
    "gameLayer/cm_1_2.png",
    "gameLayer/cm_1_2_4.png",
    "gameLayer/cm_1_3_2.png",
    "gameLayer/cm_1_3.png",
    "gameLayer/cm_1_3_4.png",
    "gameLayer/cm_1_4_2.png",
    "gameLayer/cm_1_4.png",
    "gameLayer/cm_1_4_4.png",
    "gameLayer/cm_1_5_2.png",
    "gameLayer/cm_1_5.png",
    "gameLayer/cm_1_5_4.png",
    "gameLayer/cm_1_6_2.png",
    "gameLayer/cm_1_6.png",
    "gameLayer/cm_1_6_4.png",
    "gameLayer/returnBtn0.png",
    "gameLayer/returnBtn1.png",
    "gameLayer/haveHeadBg.png",
    "gameLayer/bg.png",
    "gameLayer/timeWait.png",
    "gameLayer/bankerIcon.png",
    "gameLayer/bankerOn1.png",
    "gameLayer/bankerOn2.png",
    "gameLayer/bankerOn3.png",
    "gameLayer/bankerCancel1.png",
    "gameLayer/bankerCancel2.png",
    "gameLayer/bankerDown1.png",
    "gameLayer/bankerDown2.png",
    "gameLayer/bankerDown3.png",
    "gameLayer/bankerMesseg1.png",
    "gameLayer/bankerMesseg2.png",
    "gameLayer/bankerMesseg3.png",
    "gameLayer/bankerMesseg4.png",
    "gameLayer/bg2.png",
    "gameLayer/hcpyPlayerInfo.png",
    "gameLayer/hcpyPlayerInfoX1.png",
    "gameLayer/hcpyPlayerInfoX2.png",
    "gameLayer/hcpyPlayerInfoX3.png",
    "gameLayer/qingdengdai.png",
    "gameLayer/xiandengdai.png",
    "gameLayer/hcpyYinDao.png",
    "gameLayer/closeSound.png",
    "gameLayer/openSound.png",
    "gameLayer/add1.png",
    "gameLayer/add2.png",
    "gameLayer/add3.png",
    "gameLayer/img_8.png",
    "gameLayer/guiZheJieMian.png",
    "gameLayer/benchibaomaGuize.png",
    "Loading/closeBtn.png",
    "gameStore/payRecordBg.png",
    "loginUI/denglukuang.png",
    "loginUI/loginBtn0.png",
    "loginUI/loginBtn1.png",
    "loginUI/textbg.png",
    "loginUI/accountLogin.png",
    "loginUI/zhuceBtn1.png",
    "loginUI/zhuceBtn2.png",
    "public/closeBXBtn.png",
    "PersonalInfo/zhaohuimima.png",
    "gameChoice/bg2.png",
    "loginUI/quickGame1.png",
    "loginUI/quickGame2.png",
    "loginUI/zhangHaoDengLu1.png",
    "loginUI/zhangHaoDengLu2.png",
    "loginUI/quickRegister1.png",
    "loginUI/quickRegister2.png",
    "loginUI/noticeBtn1.png",
    "loginUI/noticeBtn2.png",
    "loginUI/noticeBtn3.png",
    "loginUI/kefuBtn1.png",
    "loginUI/kefuBtn2.png",
    "loginUI/kefuBtn3.png",
    "public/bg.png",
    "public/confirm1.png",
    "public/confirm2.png",
    "public/cancel1.png",
    "public/cancel2.png",
    "loginRewards/qianDaoBg.png",
    "loginRewards/1day.png",
    "loginRewards/yiLing.png",
    "loginRewards/addtwo.png",
    "loginRewards/2day.png",
    "loginRewards/3day.png",
    "loginRewards/4day.png",
    "loginRewards/5day.png",
    "loginRewards/6day.png",
    "loginRewards/7day.png",
    "loginRewards/VipNormal.png",
    "loginRewards/VipSelect.png",
    "loginRewards/lingQuNormal.png",
    "loginRewards/lingQuSelect.png",
    "loginRewards/lingQuDisable.png",
    "public/returnBtn1.png",
    "public/returnBtn.png",
    "public/tishikuangBg.png",
    "gameStore/payRecordBg.png",
    "loginUI/newPlayRegister.png",
    "public/closeBXBtn.png",
    "loginUI/registerBg.png",
    "loginUI/registerClear0.png",
    "loginUI/registerClear1.png",
    "gameLayer/queQianBg.png",
    "gameLayer/queQianOkBtn1.png",
    "gameLayer/queQianOkBtn2.png",
    "gameLayer/queQianCancerBtn1.png",
    "gameLayer/queQianCancerBtn2.png"
  ],
  "version": "1.6.0.0",
  "widgetTree": {
    "classname": "Panel",
    "name": null,
    "children": [
      {
        "classname": "ImageView",
        "name": null,
        "children": [
          {
            "classname": "Button",
            "name": null,
            "children": [],
            "options": {
              "__type": "ButtonSurrogate:#EditorCommon.JsonModel.Component.GUI",
              "classname": "Button",
              "name": "okBtn",
              "ZOrder": 2,
              "actiontag": 50932842,
              "anchorPointX": 0.5,
              "anchorPointY": 0.5,
              "classType": "CocoStudio.EngineAdapterWrap.CSButton",
              "colorB": 255,
              "colorG": 255,
              "colorR": 255,
              "customProperty": "",
              "flipX": false,
              "flipY": false,
              "height": 51,
              "ignoreSize": true,
              "layoutParameter": null,
              "opacity": 255,
              "positionPercentX": 0.2027027,
              "positionPercentY": -0.232283458,
              "positionType": 0,
              "rotation": 0,
              "scaleX": 1,
              "scaleY": 1,
              "sizePercentX": 0.2635135,
              "sizePercentY": 0.2007874,
              "sizeType": 0,
              "tag": 12269,
              "touchAble": true,
              "useMergedTexture": false,
              "visible": true,
              "width": 156,
              "x": 120,
              "y": -59,
              "capInsetsHeight": 1,
              "capInsetsWidth": 1,
              "capInsetsX": 0,
              "capInsetsY": 0,
              "disabled": null,
              "disabledData": {
                "path": "gameLayer/queQianOkBtn2.png",
                "plistFile": "",
                "resourceType": 0
              },
              "fontName": "微软雅黑",
              "fontSize": 14,
              "fontType": 0,
              "normal": null,
              "normalData": {
                "path": "gameLayer/queQianOkBtn1.png",
                "plistFile": "",
                "resourceType": 0
              },
              "pressed": null,
              "pressedData": {
                "path": "gameLayer/queQianOkBtn2.png",
                "plistFile": "",
                "resourceType": 0
              },
              "scale9Enable": false,
              "scale9Height": 51,
              "scale9Width": 156,
              "text": "",
              "textColorB": 255,
              "textColorG": 255,
              "textColorR": 255
            }
          },
          {
            "classname": "Button",
            "name": null,
            "children": [],
            "options": {
              "__type": "ButtonSurrogate:#EditorCommon.JsonModel.Component.GUI",
              "classname": "Button",
              "name": "quXiaoBtn",
              "ZOrder": 2,
              "actiontag": 55742394,
              "anchorPointX": 0.5,
              "anchorPointY": 0.5,
              "classType": "CocoStudio.EngineAdapterWrap.CSButton",
              "colorB": 255,
              "colorG": 255,
              "colorR": 255,
              "customProperty": "",
              "flipX": false,
              "flipY": false,
              "height": 51,
              "ignoreSize": true,
              "layoutParameter": null,
              "opacity": 255,
              "positionPercentX": -0.2027027,
              "positionPercentY": -0.232283458,
              "positionType": 0,
              "rotation": 0,
              "scaleX": 1,
              "scaleY": 1,
              "sizePercentX": 0.2635135,
              "sizePercentY": 0.2007874,
              "sizeType": 0,
              "tag": 12270,
              "touchAble": true,
              "useMergedTexture": false,
              "visible": true,
              "width": 156,
              "x": -120,
              "y": -59,
              "capInsetsHeight": 1,
              "capInsetsWidth": 1,
              "capInsetsX": 0,
              "capInsetsY": 0,
              "disabled": null,
              "disabledData": {
                "path": "gameLayer/queQianCancerBtn2.png",
                "plistFile": "",
                "resourceType": 0
              },
              "fontName": "微软雅黑",
              "fontSize": 14,
              "fontType": 0,
              "normal": null,
              "normalData": {
                "path": "gameLayer/queQianCancerBtn1.png",
                "plistFile": "",
                "resourceType": 0
              },
              "pressed": null,
              "pressedData": {
                "path": "gameLayer/queQianCancerBtn2.png",
                "plistFile": "",
                "resourceType": 0
              },
              "scale9Enable": false,
              "scale9Height": 51,
              "scale9Width": 156,
              "text": "",
              "textColorB": 255,
              "textColorG": 255,
              "textColorR": 255
            }
          }
        ],
        "options": {
          "__type": "ImageViewSurrogate:#EditorCommon.JsonModel.Component.GUI",
          "classname": "ImageView",
          "name": "queQianTiShi",
          "ZOrder": 6,
          "actiontag": 6231436,
          "anchorPointX": 0.5,
          "anchorPointY": 0.5,
          "classType": "CocoStudio.EngineAdapterWrap.CSImageView",
          "colorB": 255,
          "colorG": 255,
          "colorR": 255,
          "customProperty": "",
          "flipX": false,
          "flipY": false,
          "height": 254,
          "ignoreSize": true,
          "layoutParameter": null,
          "opacity": 255,
          "positionPercentX": 0.5,
          "positionPercentY": 0.5,
          "positionType": 0,
          "rotation": 0,
          "scaleX": 1,
          "scaleY": 1,
          "sizePercentX": 0.4625,
          "sizePercentY": 0.352777779,
          "sizeType": 0,
          "tag": 12267,
          "touchAble": true,
          "useMergedTexture": false,
          "visible": true,
          "width": 592,
          "x": 640,
          "y": 360,
          "capInsetsHeight": 1,
          "capInsetsWidth": 1,
          "capInsetsX": 0,
          "capInsetsY": 0,
          "fileName": null,
          "fileNameData": {
            "path": "gameLayer/queQianBg.png",
            "plistFile": "",
            "resourceType": 0
          },
          "scale9Enable": false,
          "scale9Height": 254,
          "scale9Width": 592
        }
      }
    ],
    "options": {
      "__type": "PanelSurrogate:#EditorCommon.JsonModel.Component.GUI",
      "classname": "Panel",
      "name": "Panel_4",
      "ZOrder": 0,
      "actiontag": -1,
      "anchorPointX": 0,
      "anchorPointY": 0,
      "classType": "CocoStudio.EngineAdapterWrap.CSPanel",
      "colorB": 255,
      "colorG": 255,
      "colorR": 255,
      "customProperty": "",
      "flipX": false,
      "flipY": false,
      "height": 720,
      "ignoreSize": false,
      "layoutParameter": null,
      "opacity": 255,
      "positionPercentX": 0,
      "positionPercentY": 0,
      "positionType": 0,
      "rotation": 0,
      "scaleX": 1,
      "scaleY": 1,
      "sizePercentX": 1,
      "sizePercentY": 1,
      "sizeType": 0,
      "tag": 12250,
      "touchAble": true,
      "useMergedTexture": false,
      "visible": true,
      "width": 1280,
      "x": 0,
      "y": 0,
      "adaptScreen": false,
      "backGroundImage": null,
      "backGroundImageData": null,
      "backGroundScale9Enable": false,
      "bgColorB": 255,
      "bgColorG": 200,
      "bgColorOpacity": 0,
      "bgColorR": 150,
      "bgEndColorB": 255,
      "bgEndColorG": 200,
      "bgEndColorR": 150,
      "bgStartColorB": 255,
      "bgStartColorG": 255,
      "bgStartColorR": 255,
      "capInsetsHeight": 1,
      "capInsetsWidth": 1,
      "capInsetsX": 0,
      "capInsetsY": 0,
      "clipAble": false,
      "colorType": 1,
      "layoutType": 0,
      "vectorX": 0,
      "vectorY": -0.5
    }
  }
}